<svg width="40" height="40" viewBox="0 0 40 40" fill="none" xmlns="http://www.w3.org/2000/svg">
<mask id="mask0" mask-type="alpha" maskUnits="userSpaceOnUse" x="0" y="0" width="40" height="40">
<circle cx="20" cy="20" r="20" fill="#C4C4C4"/>
</mask>
<g mask="url(#mask0)">
<path d="M10.5 40H-4.8125C-6.02109 40 -7 39.0056 -7 37.7778V2.22222C-7 0.994444 -6.02109 0 -4.8125 0H10.5V40Z" fill="#EE7F25"/>
<path d="M46.3335 37.7778C46.3335 39.0056 45.3546 40 44.146 40H28.8335V0H44.146C45.3546 0 46.3335 0.994444 46.3335 2.22222V37.7778Z" fill="#0E9E60"/>
<path d="M28.8333 0H10.5V40H28.8333V0Z" fill="#E6E6E6"/>
</g>
</svg>
