<svg width="40" height="40" viewBox="0 0 40 40" fill="none" xmlns="http://www.w3.org/2000/svg">
<mask id="mask0" mask-type="alpha" maskUnits="userSpaceOnUse" x="0" y="0" width="40" height="40">
<circle cx="20" cy="20" r="20" fill="#C4C4C4"/>
</mask>
<g mask="url(#mask0)">
<path d="M46.3333 37.7778C46.3333 39.0056 45.3389 40 44.1111 40H-4.77778C-6.00556 40 -7 39.0056 -7 37.7778V26.6667H46.3333V37.7778Z" fill="#1C73BA"/>
<path d="M46.3333 13.3333H-7V26.6666H46.3333V13.3333Z" fill="#E6E6E6"/>
<path d="M46.3333 13.3333H-7V2.22222C-7 0.994444 -6.00556 0 -4.77778 0H44.1111C45.3389 0 46.3333 0.994444 46.3333 2.22222V13.3333Z" fill="#27B34A"/>
</g>
</svg>
